Lab 21: Sixteen Personality Factors I
…
Now, produce a dataset that consists only of responses from the country of Hungary. The 2-letter country code for Hungary is HU. Produce a confidence interval for your trait on the Hungarian dataset.

## # A tibble: 55 x 21
##      age gender country elapsed warmth reasoning emotional_stability
##    <int> <chr>  <chr>     <int>  <dbl>     <dbl>               <dbl>
##  1    23 female HU         4214   11.0      14.0                12.0
##  2    28 female HU          649   15.0      16.0                12.0
##  3    35 male   HU          721   10.0      14.0                13.0
##  4    17 female HU         3624   15.0      14.0                11.0
##  5    53 male   HU          929   15.0      14.0                13.0
##  6    32 female HU         1099   10.0      14.0                11.0
##  7    46 male   HU         4511   15.0      13.0                12.0
##  8    18 female HU          606   14.0      14.0                14.0
##  9    23 male   HU          492   14.0      14.0                14.0
## 10    37 female HU         1691   12.0      13.0                11.0
## # ... with 45 more rows, and 14 more variables: dominance <dbl>,
## #   liveliness <dbl>, rule_consciousness <dbl>, social_boldness <dbl>,
## #   sensitivity <dbl>, vigilance <dbl>, abstractedness <dbl>,
## #   privateness <dbl>, apprehension <dbl>, openness_to_change <dbl>,
## #   self_reliance <dbl>, perfectionism <dbl>, tension <dbl>,
## #   baseline <dbl>
…
Answer: -1.4083 to 0.971

Is there a statistically significant difference between men and womens average score? If so, what direction is this difference? Does this challenge or confirm traditional gender stereotypes (note: not all personality traits have one)?

Answer: It is not statistically significant. Not sure about stereotypes.

Construct a new dataset that only has ages from 30-49 (from the original pf, not just the Hungarian subset). Hint: you can use the filter function twice.

## # A tibble: 9,685 x 21
##      age gender country elapsed warmth reasoning emotional_stability
##    <int> <chr>  <chr>     <int>  <dbl>     <dbl>               <dbl>
##  1    37 male   US          891   14.0      13.0                12.0
##  2    31 male   US          903   14.0      14.0                12.0
##  3    32 male   US          806   14.0      15.0                12.0
##  4    46 female NZ         1826   13.0      15.0                14.0
##  5    36 female IT          669   15.0      12.0                11.0
##  6    35 male   US          717   13.0      14.0                12.0
##  7    37 female US        41909   15.0      14.0                12.0
##  8    32 female NL          713   17.0      16.0                14.0
##  9    44 male   US          590   14.0      14.0                12.0
## 10    33 male   CA          695   12.0      14.0                11.0
## # ... with 9,675 more rows, and 14 more variables: dominance <dbl>,
## #   liveliness <dbl>, rule_consciousness <dbl>, social_boldness <dbl>,
## #   sensitivity <dbl>, vigilance <dbl>, abstractedness <dbl>,
## #   privateness <dbl>, apprehension <dbl>, openness_to_change <dbl>,
## #   self_reliance <dbl>, perfectionism <dbl>, tension <dbl>,
## #   baseline <dbl>
…
Describe the slope for the gender term in words:

Answer: Men tend to score 0.2357 lower.

Add predictions from the previous model to pf.

## # A tibble: 49,060 x 23
##      age gender country elapsed warmth reasoning emotional_stability
##    <int> <chr>  <chr>     <int>  <dbl>     <dbl>               <dbl>
##  1    17 male   US          914   12.0      14.0                15.0
##  2    37 male   US          891   14.0      13.0                12.0
##  3    31 male   US          903   14.0      14.0                12.0
##  4    32 male   US          806   14.0      15.0                12.0
##  5    46 female NZ         1826   13.0      15.0                14.0
##  6    36 female IT          669   15.0      12.0                11.0
##  7    35 male   US          717   13.0      14.0                12.0
##  8    61 female US          567   15.0      14.0                12.0
##  9    17 female US          651   15.0      15.0                12.0
## 10    19 male   US         1835   15.0      14.0                12.0
## # ... with 49,050 more rows, and 16 more variables: dominance <dbl>,
## #   liveliness <dbl>, rule_consciousness <dbl>, social_boldness <dbl>,
## #   sensitivity <dbl>, vigilance <dbl>, abstractedness <dbl>,
## #   privateness <dbl>, apprehension <dbl>, openness_to_change <dbl>,
## #   self_reliance <dbl>, perfectionism <dbl>, tension <dbl>,
## #   baseline <dbl>, model_pred <dbl>, model_resid <dbl>
…
